<?xml version="1.0" encoding="utf-8"?>
<!-- Generator: Adobe Illustrator 17.0.0, SVG Export Plug-In . SVG Version: 6.00 Build 0)  -->
<!DOCTYPE svg PUBLIC "-//W3C//DTD SVG 1.1//EN" "http://www.w3.org/Graphics/SVG/1.1/DTD/svg11.dtd">
<svg version="1.1" id="Layer_1" xmlns="http://www.w3.org/2000/svg" xmlns:xlink="http://www.w3.org/1999/xlink" x="0px" y="0px"
	 width="80.5px" height="58px" viewBox="0 0 80.5 58" enable-background="new 0 0 80.5 58" xml:space="preserve">
<path id="left" fill="#EC0002" d="M25.104,26.375c0,0-10.648-22.576-22.077-10.277C-10.897,31.08,27.729,58.144,27.729,58.144
	s31.755-28.559,17.749-42.097C35.994,6.878,25.104,26.375,25.104,26.375z"/>
<path id="right" fill="#EC0002" d="M76.891,3.456c-9.525-9.125-20.326,10.421-20.326,10.421S45.814-8.651,34.442,3.7
	c-3.449,3.745-3.637,8.223-1.977,12.838c3.993-4.114,9.452-7.384,14.513-2.492c5.714,5.524,3.81,13.548-0.445,21.112
	c6.571,6.15,12.802,10.475,12.802,10.475S90.958,16.931,76.891,3.456z"/>
</svg>
